{
	"chains":[
		{
			"nodes":[
				{
					"address":"ip_hostC",
					"name":"hostC",
					"functional_type":"web_server"
				},
				{
					"address":"ip_hostA",
					"name":"hostA",
					"functional_type":"web_client"
				},
				{
					"address":"ip_politoCache",
					"name":"politoCache",
					"functional_type":"cache"
				},
				{
					"address":"ip_politoNat",
					"name":"politoNat",
					"functional_type":"nat"
				},
				{
					"address":"ip_politoFw",
					"name":"politoFw",
					"functional_type":"firewall"
				},
				{
					"address":"ip_hostB",
					"name":"hostB",
					"functional_type":"web_server"
				}
			],
			"flowspace":"tcp=80",
			"id":"1"
		}
	]
}